{
  "project_info": {
    "project_number": "326514882504",
    "firebase_url": "https://spin-the-bottle-5440f.firebaseio.com",
    "project_id": "spin-the-bottle-5440f",
    "storage_bucket": "spin-the-bottle-5440f.appspot.com"
  },
  "client": [
    {
      "client_info": {
        "mobilesdk_app_id": "1:326514882504:android:08e2444ee0228867",
        "android_client_info": {
          "package_name": "dk.nijosoftware.mostlikely"
        }
      },
      "oauth_client": [
        {
          "client_id": "326514882504-g1j0aqv8pa9svb500og94htia6fqmds2.apps.googleusercontent.com",
          "client_type": 3
        }
      ],
      "api_key": [
        {
          "current_key": "AIzaSyDpb8KBCCfZd_pRUlaKEHbZIBgiXOoCwSg"
        }
      ],
      "services": {
        "analytics_service": {
          "status": 1
        },
        "appinvite_service": {
          "status": 1,
          "other_platform_oauth_client": []
        },
        "ads_service": {
          "status": 2
        }
      }
    },
    {
      "client_info": {
        "mobilesdk_app_id": "1:326514882504:android:3f531b51b625e433",
        "android_client_info": {
          "package_name": "dk.nijosoftware.neverhaveiever"
        }
      },
      "oauth_client": [
        {
          "client_id": "326514882504-fmlil0249ikg5s6anqdnvsuv8dt3biub.apps.googleusercontent.com",
          "client_type": 1,
          "android_info": {
            "package_name": "dk.nijosoftware.neverhaveiever",
            "certificate_hash": "1a3457a339a4064ba345c5c8bb55d0c57a7db27d"
          }
        },
        {
          "client_id": "326514882504-g1j0aqv8pa9svb500og94htia6fqmds2.apps.googleusercontent.com",
          "client_type": 3
        }
      ],
      "api_key": [
        {
          "current_key": "AIzaSyDpb8KBCCfZd_pRUlaKEHbZIBgiXOoCwSg"
        }
      ],
      "services": {
        "analytics_service": {
          "status": 1
        },
        "appinvite_service": {
          "status": 2,
          "other_platform_oauth_client": [
            {
              "client_id": "326514882504-g1j0aqv8pa9svb500og94htia6fqmds2.apps.googleusercontent.com",
              "client_type": 3
            },
            {
              "client_id": "326514882504-1kcdj3vsjfpubhgh614te3f94ln9j3ic.apps.googleusercontent.com",
              "client_type": 2,
              "ios_info": {
                "bundle_id": "dk.nijosoftware.neverhaveiever",
                "app_store_id": "1378209476"
              }
            }
          ]
        },
        "ads_service": {
          "status": 2
        }
      },
      "admob_app_id": "ca-app-pub-6223634116903152~2394852101"
    },
    {
      "client_info": {
        "mobilesdk_app_id": "1:326514882504:android:ba5c174181c9130b",
        "android_client_info": {
          "package_name": "dk.nijosoftware.spinthebottle"
        }
      },
      "oauth_client": [
        {
          "client_id": "326514882504-509ht5f8i2ot267ct08c8eof829e9rq6.apps.googleusercontent.com",
          "client_type": 1,
          "android_info": {
            "package_name": "dk.nijosoftware.spinthebottle",
            "certificate_hash": "3790b15e1cde3867a0633bda97eca7d7aeaa247c"
          }
        },
        {
          "client_id": "326514882504-g1j0aqv8pa9svb500og94htia6fqmds2.apps.googleusercontent.com",
          "client_type": 3
        }
      ],
      "api_key": [
        {
          "current_key": "AIzaSyDpb8KBCCfZd_pRUlaKEHbZIBgiXOoCwSg"
        }
      ],
      "services": {
        "analytics_service": {
          "status": 1
        },
        "appinvite_service": {
          "status": 2,
          "other_platform_oauth_client": [
            {
              "client_id": "326514882504-g1j0aqv8pa9svb500og94htia6fqmds2.apps.googleusercontent.com",
              "client_type": 3
            },
            {
              "client_id": "326514882504-1kcdj3vsjfpubhgh614te3f94ln9j3ic.apps.googleusercontent.com",
              "client_type": 2,
              "ios_info": {
                "bundle_id": "dk.nijosoftware.neverhaveiever",
                "app_store_id": "1378209476"
              }
            }
          ]
        },
        "ads_service": {
          "status": 2
        }
      },
      "admob_app_id": "ca-app-pub-6223634116903152~9027385664"
    },
    {
      "client_info": {
        "mobilesdk_app_id": "1:326514882504:android:501a39e1f22a478e",
        "android_client_info": {
          "package_name": "dk.nijosoftware.truthordare"
        }
      },
      "oauth_client": [
        {
          "client_id": "326514882504-3ganqlvea8drcrsioilpjp34odacvsh9.apps.googleusercontent.com",
          "client_type": 1,
          "android_info": {
            "package_name": "dk.nijosoftware.truthordare",
            "certificate_hash": "ccb247927b2e6eb84aaed57f1715539975db4049"
          }
        },
        {
          "client_id": "326514882504-g1j0aqv8pa9svb500og94htia6fqmds2.apps.googleusercontent.com",
          "client_type": 3
        }
      ],
      "api_key": [
        {
          "current_key": "AIzaSyDpb8KBCCfZd_pRUlaKEHbZIBgiXOoCwSg"
        }
      ],
      "services": {
        "analytics_service": {
          "status": 1
        },
        "appinvite_service": {
          "status": 2,
          "other_platform_oauth_client": [
            {
              "client_id": "326514882504-g1j0aqv8pa9svb500og94htia6fqmds2.apps.googleusercontent.com",
              "client_type": 3
            },
            {
              "client_id": "326514882504-1kcdj3vsjfpubhgh614te3f94ln9j3ic.apps.googleusercontent.com",
              "client_type": 2,
              "ios_info": {
                "bundle_id": "dk.nijosoftware.neverhaveiever",
                "app_store_id": "1378209476"
              }
            }
          ]
        },
        "ads_service": {
          "status": 2
        }
      }
    }
  ],
  "configuration_version": "1"
}